2458342.845138889, A.D. 2018-Aug-12 08:17:00.0000,  6.582521341879163E+06, -1.085707722790325E+08, -1.869187996786676E+06,  3.472107753939545E+01,  1.992451483490540E+00, -1.976304003995717E+00,  3.628716843182559E+02,  1.087861941803699E+08,  1.463818223193582E-01,
2458343.845138889, A.D. 2018-Aug-13 08:17:00.0000,  9.579505448647793E+06, -1.083568804768704E+08, -2.039199698327392E+06,  3.464911063003281E+01,  2.958375065732612E+00, -1.958900715004191E+00,  3.629131184845983E+02,  1.087986158309430E+08,  1.411381964528615E-01,
2458344.845138889, A.D. 2018-Aug-14 08:17:00.0000,  1.256912087876130E+07, -1.080596399437498E+08, -2.207642818878405E+06,  3.455052006133128E+01,  3.921698880581406E+00, -1.939996716784214E+00,  3.629530259106625E+02,  1.088105797762952E+08,  1.357874750997537E-01,
2458345.845138889, A.D. 2018-Aug-15 08:17:00.0000,  1.554907118815757E+07, -1.076793067162668E+08, -2.374388349726513E+06,  3.442539794398978E+01,  4.881696212148179E+00, -1.919607293605684E+00,  3.629913763239709E+02,  1.088220769409662E+08,  1.303337813510956E-01,
2458346.845138889, A.D. 2018-Aug-16 08:17:00.0000,  1.851706872389087E+07, -1.072161994768771E+08, -2.539308648822494E+06,  3.427385564520144E+01,  5.837643721447321E+00, -1.897748794666238E+00,  3.630281406507402E+02,  1.088330986088551E+08,  1.247813101202880E-01,
2458347.845138889, A.D. 2018-Aug-17 08:17:00.0000,  2.147083628251352E+07, -1.066706992412682E+08, -2.702277532194272E+06,  3.409602366239219E+01,  6.788821928517838E+00, -1.874438620192965E+00,  3.630632910361450E+02,  1.088436364292952E+08,  1.191343251171575E-01,
2458348.845138889, A.D. 2018-Aug-18 08:17:00.0000,  2.440810875710116E+07, -1.060432490042897E+08, -2.863170364136308E+06,  3.389205148663556E+01,  7.734515689620582E+00, -1.849695207015071E+00,  3.630968008637055E+02,  1.088536824228668E+08,  1.133971557940548E-01,
2458349.845138889, A.D. 2018-Aug-19 08:17:00.0000,  2.732663477203807E+07, -1.053343533448690E+08, -3.021864146130189E+06,  3.366210745593819E+01,  8.674014669397394E+00, -1.823538013619790E+00,  3.631286447737912E+02,  1.088632289869437E+08,  1.075741942626745E-01,
2458350.845138889, A.D. 2018-Aug-20 08:17:00.0000,  3.022417830469556E+07, -1.045445779903552E+08, -3.178237604452081E+06,  3.340637859858386E+01,  9.606613807888170E+00, -1.795987504703156E+00,  3.631587986812307E+02,  1.088722689009733E+08,  1.016698921781289E-01,
2458351.845138889, A.D. 2018-Aug-21 08:17:00.0000,  3.309852029315236E+07, -1.036745493407376E+08, -3.332171276423834E+06,  3.312507046671629E+01,  1.053161378231183E+01, -1.767065135226662E+00,  3.631872397920189E+02,  1.088807953314847E+08,  9.568875758378044E-02,
2458352.845138889, A.D. 2018-Aug-22 08:17:00.0000,  3.594746022912101E+07, -1.027249539531958E+08, -3.483547595265836E+06,  3.281840696032679E+01,  1.144832146351818E+01, -1.736793333989932E+00,  3.632139466191075E+02,  1.088888018368230E+08,  8.963535171309905E-02,
2458353.845138889, A.D. 2018-Aug-23 08:17:00.0000,  3.876881773525760E+07, -1.016965379874472E+08, -3.632250973509736E+06,  3.248663014180593E+01,  1.235605036700139E+01, -1.705195486728294E+00,  3.632388989972712E+02,  1.088962823716056E+08,  8.351428576313692E-02,
2458354.845138889, A.D. 2018-Aug-24 08:17:00.0000,  4.156043412604622E+07, -1.005901066123631E+08, -3.778167884930797E+06,  3.213000004118192E+01,  1.325412109841608E+01, -1.672295918745933E+00,  3.632620780970331E+02,  1.089032312908975E+08,  7.733021759814186E-02,
2458355.845138889, A.D. 2018-Aug-25 08:17:00.0000,  4.432017395146114E+07, -9.940652337433301E+07, -3.921186944959901E+06,  3.174879445226405E+01,  1.414186179352031E+01, -1.638119877091888E+00,  3.632834664376327E+02,  1.089096433540984E+08,  7.108784839670637E-02,
2458356.845138889, A.D. 2018-Aug-26 08:17:00.0000,  4.704592652262399E+07, -9.814670952786389E+07, -4.061198989536159E+06,  3.134330871971530E+01,  1.501860855239521E+01, -1.602693512288203E+00,  3.633030478990212E+02,  1.089155137285393E+08,  6.479191926000680E-02,
2458357.845138889, A.D. 2018-Aug-27 08:17:00.0000,  4.973560741867860E+07, -9.681164332891195E+07, -4.198097152361780E+06,  3.091385551724228E+01,  1.588370586788680E+01, -1.566043859620703E+00,  3.633208077328712E+02,  1.089208379927829E+08,  5.844720776092390E-02,
2458358.845138889, A.D. 2018-Aug-28 08:17:00.0000,  5.238715997412267E+07, -9.540235929145047E+07, -4.331776940522142E+06,  3.046076461702890E+01,  1.673650704816564E+01, -1.528198820002053E+00,  3.633367325725847E+02,  1.089256121396238E+08,  5.205852444644697E-02,
2458359.845138889, A.D. 2018-Aug-29 08:17:00.0000,  5.499855674584405E+07, -9.391994740778713E+07, -4.462136308434039E+06,  2.998438265052758E+01,  1.757637463327535E+01, -1.489187140419081E+00,  3.633508104422899E+02,  1.089298325787861E+08,  4.563070931996339E-02,
2458360.845138889, A.D. 2018-Aug-30 08:17:00.0000,  5.756780095912121E+07, -9.236555233315545E+07, -4.589075730087455E+06,  2.948507286074866E+01,  1.840268080555140E+01, -1.449038393978210E+00,  3.633630307648231E+02,  1.089334961393159E+08,  3.916862833049779E-02,
2458361.845138889, A.D. 2018-Aug-31 08:17:00.0000,  6.009292793185975E+07, -9.074037253511497E+07, -4.712498269546136E+06,  2.896321484620827E+01,  1.921480779380484E+01, -1.407782959563622E+00,  3.633733843687054E+02,  1.089366000716729E+08,  3.267716989680330E-02,
2458362.845138889, A.D. 2018-Sep-01 08:17:00.0000,  6.257200647635187E+07, -8.904565940830235E+07, -4.832309649674617E+06,  2.841920429670470E+01,  2.001214827118083E+01, -1.365452001122600E+00,  3.633818634941240E+02,  1.089391420495239E+08,  2.616124149440450E-02,
2458363.845138889, A.D. 2018-Sep-02 08:17:00.0000,  6.500314027786013E+07, -8.728271635508344E+07, -4.948418319059823E+06,  2.785345272109492E+01,  2.079410574661979E+01, -1.322077446591432E+00,  3.633884617979430E+02,  1.089411201712444E+08,  1.962576632974480E-02,
2458364.845138889, A.D. 2018-Sep-03 08:17:00.0000,  6.738446924934144E+07, -8.545289783266163E+07, -5.060735517096695E+06,  2.726638716723655E+01,  2.156009494986874E+01, -1.277691966473044E+00,  3.633931743577703E+02,  1.089425329611385E+08,  1.307568011861461E-02,
2458365.845138889, A.D. 2018-Sep-04 08:17:00.0000,  6.971417086164099E+07, -8.355760836720081E+07, -5.169175337208293E+06,  2.665844993424459E+01,  2.230954221001324E+01, -1.232328952074492E+00,  3.633959976751112E+02,  1.089433793703839E+08,  6.515927971949882E-03,
2458366.845138889, A.D. 2018-Sep-05 08:17:00.0000,  7.199046144849795E+07, -8.159830153552338E+07, -5.273654788171001E+06,  2.603009827718846E+01,  2.304188582752488E+01, -1.186022493408392E+00,  3.633969296776391E+02,  1.089436587777126E+08, -4.853862764376358E-05,
2458367.845138889, A.D. 2018-Sep-06 08:17:00.0000,  7.421159748571374E+07, -7.957647891494299E+07, -5.374093853515908E+06,  2.538180410432255E+01,  2.375657643984635E+01, -1.138807356757232E+00,  3.633959697206021E+02,  1.089433709898329E+08, -6.612764802569914E-03,
2458368.845138889, A.D. 2018-Sep-07 08:17:00.0000,  7.637587684384044E+07, -7.749368900178817E+07, -5.470415548976969E+06,  2.471405366689897E+01,  2.445307738053895E+01, -1.090718961895117E+00,  3.633931185873707E+02,  1.089425162415934E+08, -1.317179527146616E-02,
2458369.845138889, A.D. 2018-Sep-08 08:17:00.0000,  7.848164001374917E+07, -7.535152609918146E+07, -5.562545977956589E+06,  2.402734724157818E+01,  2.513086503179503E+01, -1.041793358972896E+00,  3.633883784891319E+02,  1.089410951958912E+08, -1.972067727740634E-02,
2458370.845138889, A.D. 2018-Sep-09 08:17:00.0000,  8.052727130443998E+07, -7.315162917464039E+07, -5.650414384978931E+06,  2.332219880546038E+01,  2.578942917051790E+01, -9.920672050527664E-01,  3.633817530637209E+02,  1.089391089433219E+08, -2.625446366719023E-02,
2458371.845138889, A.D. 2018-Sep-10 08:17:00.0000,  8.251120001245515E+07, -7.089568068806647E+07, -5.733953207101066E+06,  2.259913570373523E+01,  2.642827330765159E+01, -9.415777402991843E-01,  3.633732473735627E+02,  1.089365590015624E+08, -3.276821597540563E-02,
2458372.845138889, A.D. 2018-Sep-11 08:17:00.0000,  8.443190156225984E+07, -6.858540539070760E+07, -5.813098123252008E+06,  2.185869830997254E+01,  2.704691502075747E+01, -8.903627638266496E-01,  3.633628679027132E+02,  1.089334473144837E+08, -3.925700759449571E-02,
2458373.845138889, A.D. 2018-Sep-12 08:17:00.0000,  8.628789861695383E+07, -6.622256909568331E+07, -5.887788101470407E+06,  2.110143967906182E+01,  2.764488627968121E+01, -8.384606092075568E-01,  3.633506225529761E+02,  1.089297762509869E+08, -4.571592702003980E-02,
2458374.845138889, A.D. 2018-Sep-13 08:17:00.0000,  8.807776215868150E+07, -6.380897742067597E+07, -5.957965444011614E+06,  2.032792519285031E+01,  2.822173376516638E+01, -7.859101196468359E-01,  3.633365206390749E+02,  1.089255486035560E+08, -5.214008115035090E-02,
2458375.845138889, A.D. 2018-Sep-14 08:17:00.0000,  8.980011253811143E+07, -6.134647450340382E+07, -6.023575830295756E+06,  1.953873219853308E+01,  2.877701918026680E+01, -7.327506228313769E-01,  3.633205728828709E+02,  1.089207675865240E+08, -5.852459862186386E-02,
2458376.845138889, A.D. 2018-Sep-15 08:17:00.0000,  9.145362049236183E+07, -5.883694169050427E+07, -6.084568357668985E+06,  1.873444963985536E+01,  2.931031955441271E+01, -6.790219054620952E-01,  3.633027914066130E+02,  1.089154368340498E+08, -6.486463316541725E-02,
2458377.845138889, A.D. 2018-Sep-16 08:17:00.0000,  9.303700813075390E+07, -5.628229620046844E+07, -6.140895579950947E+06,  1.791567768119246E+01,  2.982122753998839E+01, -6.247641874763730E-01,  3.632831897252225E+02,  1.089095603978048E+08, -7.115536697083857E-02,
2458378.845138889, A.D. 2018-Sep-17 08:17:00.0000,  9.454904988778025E+07, -5.368448976127994E+07, -6.192513543741874E+06,  1.708302732457588E+01,  3.030935170127888E+01, -5.700180959684165E-01,  3.632617827376056E+02,  1.089031427443687E+08, -7.739201404886629E-02,
2458379.845138889, A.D. 2018-Sep-18 08:17:00.0000,  9.598857344268222E+07, -5.104550722342350E+07, -6.239381822463710E+06,  1.623712001973607E+01,  3.077431679564391E+01, -5.148246388147424E-01,  3.632385867169996E+02,  1.088961887523355E+08, -8.356982358127420E-02,
2458380.845138889, A.D. 2018-Sep-19 08:17:00.0000,  9.735446060503589E+07, -4.836736514894101E+07, -6.281463548109846E+06,  1.537858726723163E+01,  3.121576404677496E+01, -4.592251780117387E-01,  3.632136193003562E+02,  1.088887037091300E+08, -8.968408325230964E-02,
2458381.845138889, A.D. 2018-Sep-20 08:17:00.0000,  9.864564816575210E+07, -4.565211037722560E+07, -6.318725440679209E+06,  1.450807021473347E+01,  3.163335140988901E+01, -4.032614027317418E-01,  3.631868994767683E+02,  1.088806933075393E+08, -9.573012255778854E-02,
2458382.845138889, A.D. 2018-Sep-21 08:17:00.0000,  9.986112871290207E+07, -4.290181856825649E+07, -6.351137835270269E+06,  1.362621924652792E+01,  3.202675382870842E+01, -3.469753021037008E-01,  3.631584475749443E+02,  1.088721636419567E+08, -1.017033160931108E-01,
2458383.845138889, A.D. 2018-Sep-22 08:17:00.0000,  1.009999514117854E+08, -4.011859272399142E+07, -6.378674706811724E+06,  1.273369356629817E+01,  3.239566348407178E+01, -2.904091377239251E-01,  3.631282852497397E+02,  1.088631212043446E+08, -1.075990868281634E-01,
2458384.845138889, A.D. 2018-Sep-23 08:17:00.0000,  1.020612227486617E+08, -3.730456168864635E+07, -6.401313692406572E+06,  1.183116077324281E+01,  3.273979003400891E+01, -2.336054159025842E-01,  3.630964354677432E+02,  1.088535728799131E+08, -1.134129093771925E-01,
2458385.845138889, A.D. 2018-Sep-24 08:17:00.0000,  1.030441072375769E+08, -3.446187862860801E+07, -6.419036111267332E+06,  1.091929643167068E+01,  3.305886084510744E+01, -1.766068596566903E-01,  3.630629224919309E+02,  1.088435259425194E+08, -1.191403131995634E-01,
2458386.845138889, A.D. 2018-Sep-25 08:17:00.0000,  1.039478280897164E+08, -3.159271949273863E+07, -6.431826982220361E+06,  9.998783633990682E+00,  3.335262121498661E+01, -1.194563804484439E-01,  3.630277718653887E+02,  1.088329880497881E+08, -1.247768858751103E-01,
2458387.845138889, A.D. 2018-Sep-26 08:17:00.0000,  1.047716678447260E+08, -2.869928145384968E+07, -6.439675038757991E+06,  9.070312557346265E+00,  3.362083458571191E+01, -6.219704968294515E-02,  3.629910103941006E+02,  1.088219672379510E+08, -1.303182763017221E-01,
2458388.845138889, A.D. 2018-Sep-27 08:17:00.0000,  1.055149689634484E+08, -2.578378133213507E+07, -6.442572741617683E+06,  8.134580013861898E+00,  3.386328274793664E+01, -4.872069968822501E-03,  3.629526661288127E+02,  1.088104719164101E+08, -1.357601979146498E-01,
2458389.845138889, A.D. 2018-Sep-28 08:17:00.0000,  1.061771343815306E+08, -2.284845400137475E+07, -6.440516288868270E+06,  7.192288994614326E+00,  3.407976603556857E+01,  5.247525384885954E-02,  3.629127683459699E+02,  1.087985108620229E+08, -1.410984319075621E-01,
2458390.845138889, A.D. 2018-Sep-29 08:17:00.0000,  1.067576280233620E+08, -1.989555077873538E+07, -6.433505623483850E+06,  6.244148207430882E+00,  3.427010351076356E+01,  1.098015438755837E-01,  3.628713475277241E+02,  1.087860932131086E+08, -1.463288304514469E-01,
2458391.845138889, A.D. 2018-Sep-30 08:17:00.0000,  1.072559752758155E+08, -1.692733779901320E+07, -6.421544438386763E+06,  5.290871608609172E+00,  3.443413313902774E+01,  1.670633785652100E-01,  3.628284353410140E+02,  1.087732284631767E+08, -1.514473199173091E-01,
2458392.845138889, A.D. 2018-Oct-01 08:17:00.0000,  1.076717634212703E+08, -1.394609437418357E+07, -6.404640178941817E+06,  4.333177928662778E+00,  3.457171195420455E+01,  2.242173223192143E-01,  3.627840646157159E+02,  1.087599264543763E+08, -1.564499041074342E-01,
2458393.845138889, A.D. 2018-Oct-02 08:17:00.0000,  1.080046420294044E+08, -1.095411133914062E+07, -6.382804042884789E+06,  3.371790192207965E+00,  3.468271621311874E+01,  2.812199552772565E-01,  3.627382693218602E+02,  1.087461973706665E+08, -1.613326674984806E-01,
2458394.845138889, A.D. 2018-Oct-03 08:17:00.0000,  1.082543233072583E+08, -7.953689384530977E+06, -6.356050977669178E+06,  2.407435232116677E+00,  3.476704153964507E+01,  3.380279032883529E-01,  3.626910845459132E+02,  1.087320517307051E+08, -1.660917784986018E-01,
2458395.845138889, A.D. 2018-Oct-04 08:17:00.0000,  1.084205824070766E+08, -4.947137377605210E+06, -6.324399675215987E+06,  1.440843198071466E+00,  3.482460305796456E+01,  3.945978680516138E-01,  3.626425464661157E+02,  1.087175003804560E+08, -1.707234927194956E-01,
2458396.845138889, A.D. 2018-Oct-05 08:17:00.0000,  1.085032576914539E+08, -1.936770672031785E+06, -6.287872564052496E+06,  4.727470596683109E-01,  3.485533551476709E+01,  4.508866574147365E-01,  3.625926923268788E+02,  1.087025544855127E+08, -1.752241562635484E-01,
2458397.845138889, A.D. 2018-Oct-06 08:17:00.0000,  1.085022509553179E+08,  1.075090592360983E+06, -6.246495798826830E+06, -4.961178957763462E-01,  3.485919339015447E+01,  5.068512158181075E-01,  3.625415604122284E+02,  1.086872255231374E+08, -1.795902090258525E-01,
2458398.845138889, A.D. 2018-Oct-07 08:17:00.0000,  1.084175276043004E+08,  4.086123198927854E+06, -6.200299247186342E+06, -1.465014570547669E+00,  3.483615099699413E+01,  5.624486548716323E-01,  3.624891900182968E+02,  1.086715252740143E+08, -1.838181880110326E-01,
2458399.845138889, A.D. 2018-Oct-08 08:17:00.0000,  1.082491167890605E+08,  7.094002571625671E+06, -6.149316474008895E+06, -2.433204568806552E+00,  3.478620256846870E+01,  6.176362840510592E-01,  3.624356214248562E+02,  1.086554658137151E+08, -1.879047306655723E-01,
2458400.845138889, A.D. 2018-Oct-09 08:17:00.0000,  1.079971114951402E+08,  1.009640449947748E+07, -6.093584722977311E+06, -3.399948713618909E+00,  3.470936233356683E+01,  6.723716415008170E-01,  3.623808958658891E+02,  1.086390595038769E+08, -1.918465782181234E-01,
2458401.845138889, A.D. 2018-Oct-10 08:17:00.0000,  1.076616685879521E+08,  1.309100686703061E+07, -6.033144895488410E+06, -4.364507568508880E+00,  3.460566458030387E+01,  7.266125249253967E-01,  3.623250554992022E+02,  1.086223189830922E+08, -1.956405789914606E-01,
2458402.845138889, A.D. 2018-Oct-11 08:17:00.0000,  1.072430088125152E+08,  1.607549138973391E+07, -5.968041526889456E+06, -5.326141963355004E+00,  3.447516370631074E+01,  7.803170225666545E-01,  3.622681433750808E+02,  1.086052571575119E+08, -1.992836917254313E-01,
2458403.845138889, A.D. 2018-Oct-12 08:17:00.0000,  1.067414167475755E+08,  1.904754535313555E+07, -5.898322760035506E+06, -6.284113524359763E+00,  3.431793425666664E+01,  8.334435442329671E-01,  3.622102034039955E+02,  1.085878871911637E+08, -2.027729888543669E-01,
2458404.845138889, A.D. 2018-Oct-13 08:17:00.0000,  1.061572407137706E+08,  2.200486335478653E+07, -5.824040316163782E+06, -7.237685207850851E+00,  3.413407094863461E+01,  8.859508523792226E-01,  3.621512803233663E+02,  1.085702224959890E+08, -2.061056597378665E-01,
2458405.845138889, A.D. 2018-Oct-14 08:17:00.0000,  1.054908926355173E+08,  2.494514904770679E+07, -5.745249463081092E+06, -8.186121837627269E+00,  3.392368868306541E+01,  9.377980932189995E-01,  3.620914196634109E+02,  1.085522767216035E+08, -2.092790138076820E-01,
2458406.845138889, A.D. 2018-Oct-15 08:17:00.0000,  1.047428478563305E+08,  2.786611688425210E+07, -5.662008980662574E+06, -9.128690645576425E+00,  3.368692254222801E+01,  9.889448278479662E-01,  3.620306677120969E+02,  1.085340637447907E+08, -2.122904836170135E-01,
2458407.845138889, A.D. 2018-Oct-16 08:17:00.0000,  1.039136449073017E+08,  3.076549385919800E+07, -5.574381123661482E+06, -1.006466181525187E+01,  3.342392777381344E+01,  1.039351063362323E+00,  3.619690714792344E+02,  1.085155976587373E+08, -2.151376277584417E-01,
2458408.845138889, A.D. 2018-Oct-17 08:17:00.0000,  1.030038852284964E+08,  3.364102125083545E+07, -5.482431581831163E+06, -1.099330902808419E+01,  3.313487976086295E+01,  1.088977283954270E+00,  3.619066786597508E+02,  1.084968927620228E+08, -2.178181336159783E-01,
2458409.845138889, A.D. 2018-Oct-18 08:17:00.0000,  1.020142328430577E+08,  3.649045635885125E+07, -5.386229437362110E+06, -1.191391001188048E+01,  3.281997397737596E+01,  1.137784481964813E+00,  3.618435375961998E+02,  1.084779635473801E+08, -2.203298199162262E-01,
2458410.845138889, A.D. 2018-Oct-19 08:17:00.0000,  1.009454139838336E+08,  3.931157423774587E+07, -5.285847119638657E+06, -1.282574709125041E+01,  3.247942592935783E+01,  1.185734188872415E+00,  3.617796972405696E+02,  1.084588246902462E+08, -2.226706390446782E-01,
2458411.845138889, A.D. 2018-Oct-20 08:17:00.0000,  9.979821667237735E+07,  4.210216942452013E+07, -5.181360357321834E+06, -1.372810773958012E+01,  3.211347108107181E+01,  1.232788506194357E+00,  3.617152071154593E+02,  1.084394910371226E+08, -2.248386790957461E-01,
2458412.845138889, A.D. 2018-Oct-21 08:17:00.0000,  9.857349025020532E+07,  4.486005765934264E+07, -5.072848127767038E+06, -1.462028513215773E+01,  3.172236476626396E+01,  1.278910136275719E+00,  3.616501172747084E+02,  1.084199775937731E+08, -2.268321656291569E-01,
2458413.845138889, A.D. 2018-Oct-22 08:17:00.0000,  9.727214486222936E+07,  4.758307759788977E+07, -4.960392603787320E+06, -1.550157870003721E+01,  3.130638208413436E+01,  1.324062412939485E+00,  3.615844782635627E+02,  1.084002995132810E+08, -2.286494631112928E-01,
2458414.845138889, A.D. 2018-Oct-23 08:17:00.0000,  9.589515089231913E+07,  5.026909251403035E+07, -4.844079097775539E+06, -1.637129468421014E+01,  3.086581777983245E+01,  1.368209331969073E+00,  3.615183410784742E+02,  1.083804720839981E+08, -2.302890760282130E-01,
2458415.845138889, A.D. 2018-Oct-24 08:17:00.0000,  9.444353835098653E+07,  5.291599199150907E+07, -4.723996003201135E+06, -1.722874668963789E+01,  3.040098610925827E+01,  1.411315581393419E+00,  3.614517571266260E+02,  1.083605107174102E+08, -2.317496496671835E-01,
2458416.845138889, A.D. 2018-Oct-25 08:17:00.0000,  9.291839621522467E+07,  5.552169360326276E+07, -4.600234733499948E+06, -1.807325623868592E+01,  2.991222068796495E+01,  1.453346571541008E+00,  3.613847781852807E+02,  1.083404309359501E+08, -2.330299705774015E-01,
2458417.845138889, A.D. 2018-Oct-26 08:17:00.0000,  9.132087172057013E+07,  5.808414457699017E+07, -4.472889658379201E+06, -1.890415332354722E+01,  2.939987432400801E+01,  1.494268464814157E+00,  3.613174563610345E+02,  1.083202483607823E+08, -2.341289667584788E-01,
2458418.845138889, A.D. 2018-Oct-27 08:17:00.0000,  8.965216960550167E+07,  6.060132344557611E+07, -4.342058037562072E+06, -1.972077695705590E+01,  2.886431883447715E+01,  1.534048205180978E+00,  3.612498440490616E+02,  1.082999786995848E+08, -2.350457075507409E-01,
2458419.845138889, A.D. 2018-Oct-28 08:17:00.0000,  8.791355130833024E+07,  6.307124168095673E+07, -4.207839951999247E+06, -2.052247572154295E+01,  2.830594484563440E+01,  1.572653547304967E+00,  3.611819938924158E+02,  1.082796377343483E+08, -2.357794033503114E-01,
2458420.845138889, A.D. 2018-Oct-29 08:17:00.0000,  8.610633411677346E+07,  6.549194531000106E+07, -4.070338232579801E+06, -2.130860831515281E+01,  2.772516157645906E+01,  1.610053085300569E+00,  3.611139587414417E+02,  1.082592413092074E+08, -2.363294051554682E-01,
2458421.845138889, A.D. 2018-Oct-30 08:17:00.0000,  8.423189027045576E+07,  6.786151651097013E+07, -3.929658386375301E+06, -2.207854409513156E+01,  2.712239660549282E+01,  1.646216281070593E+00,  3.610457916133312E+02,  1.082388053183163E+08, -2.366952040089626E-01,
2458422.845138889, A.D. 2018-Oct-31 08:17:00.0000,  8.229164601661734E+07,  7.017807518910615E+07, -3.785908520455096E+06, -2.283166361757761E+01,  2.649809562087778E+01,  1.681113492184293E+00,  3.609775456518482E+02,  1.082183456937748E+08, -2.368764304025046E-01,
2458423.845138889, A.D. 2018-Nov-01 08:17:00.0000,  8.028708061936064E+07,  7.243978052989592E+07, -3.639199263314109E+06, -2.356735917312351E+01,  2.585272215350758E+01,  1.714715999260363E+00,  3.609092740872249E+02,  1.081978783936049E+08, -2.368728536949304E-01,
2458424.845138889, A.D. 2018-Nov-02 08:17:00.0000,  7.821972532280922E+07,  7.464483252854694E+07, -3.489643683957390E+06, -2.428503531800532E+01,  2.518675729323786E+01,  1.746996032819759E+00,  3.608410301962173E+02,  1.081774193897762E+08, -2.366843815877367E-01,
2458425.845138889, A.D. 2018-Nov-03 08:17:00.0000,  7.609116226860142E+07,  7.679147349421117E+07, -3.337357208688714E+06, -2.498410939996435E+01,  2.450069938812583E+01,  1.777926799574351E+00,  3.607728672622994E+02,  1.081569846562725E+08, -2.363110596933125E-01,
2458426.845138889, A.D. 2018-Nov-04 08:17:00.0000,  7.390302336818977E+07,  7.887798952748960E+07, -3.182457535653349E+06, -2.566401207841328E+01,  2.379506372669464E+01,  1.807482508118369E+00,  3.607048385359666E+02,  1.081365901571905E+08, -2.357530712201854E-01,
2458427.845138889, A.D. 2018-Nov-05 08:17:00.0000,  7.165698913046660E+07,  8.090271196975189E+07, -3.025064547188185E+06, -2.632418783828718E+01,  2.307038220324299E+01,  1.835638393990390E+00,  3.606369971951098E+02,  1.081162518348611E+08, -2.350107367889054E-01,
2458428.845138889, A.D. 2018-Nov-06 08:17:00.0000,  6.935478744528711E+07,  8.286401882280764E+07, -2.865300220034629E+06, -2.696409549698723E+01,  2.232720296624516E+01,  1.862370744074740E+00,  3.605693963054238E+02,  1.080959855979791E+08, -2.340845143803661E-01,
2458429.845138889, A.D. 2018-Nov-07 08:17:00.0000,  6.699819232351245E+07,  8.476033613747177E+07, -2.703288533473067E+06, -2.758320870381347E+01,  2.156609004991248E+01,  1.887656920312014E+00,  3.605020887808129E+02,  1.080758073097341E+08, -2.329749994072295E-01,
2458430.845138889, A.D. 2018-Nov-08 08:17:00.0000,  6.458902259424858E+07,  8.659013936957230E+07, -2.539155375439450E+06, -2.818101643127007E+01,  2.078762298901166E+01,  1.911475382689381E+00,  3.604351273437599E+02,  1.080557327759288E+08, -2.316829248887494E-01,
2458431.845138889, A.D. 2018-Nov-09 08:17:00.0000,  6.212914056000990E+07,  8.835195470195965E+07, -2.373028446687751E+06, -2.875702345761504E+01,  1.999239641706129E+01,  1.933805711482398E+00,  3.603685644856337E+02,  1.080357777330797E+08, -2.302091617002068E-01,
2458432.845138889, A.D. 2018-Nov-10 08:17:00.0000,  5.962045061059187E+07,  9.004436033108729E+07, -2.205037163064104E+06, -2.931075084001876E+01,  1.918101964805169E+01,  1.954628628718856E+00,  3.603024524269180E+02,  1.080159578364938E+08, -2.285547188643679E-01,
2458433.845138889, A.D. 2018-Nov-11 08:17:00.0000,  5.706489779648924E+07,  9.166598771674691E+07, -2.035312555961523E+06, -2.984173637774662E+01,  1.835411624185854E+01,  1.973926018824799E+00,  3.602368430773495E+02,  1.079962886483189E+08, -2.267207438796616E-01,
2458434.845138889, A.D. 2018-Nov-12 08:17:00.0000,  5.446446636275423E+07,  9.321552279355818E+07, -1.863987171026371E+06, -3.034953506459671E+01,  1.751232355354722E+01,  1.991680948445419E+00,  3.601717879959717E+02,  1.079767856255672E+08, -2.247085229776073E-01,
2458435.845138889, A.D. 2018-Nov-13 08:17:00.0000,  5.182117824424507E+07,  9.469170714283048E+07, -1.691194965189841E+06, -3.083371953011572E+01,  1.665629226679478E+01,  2.007877685387919E+00,  3.601073383511149E+02,  1.079574641081184E+08, -2.225194813639845E-01,
2458436.845138889, A.D. 2018-Nov-14 08:17:00.0000,  4.913709152326635E+07,  9.609333912343466E+07, -1.517071202101395E+06, -3.129388046881997E+01,  1.578668591167162E+01,  2.022501716668411E+00,  3.600435448803240E+02,  1.079383393067056E+08, -2.201551833421345E-01,
2458437.845138889, A.D. 2018-Nov-15 08:17:00.0000,  4.641429885066400E+07,  9.741927496034576E+07, -1.341752346042819E+06, -3.172962705683691E+01,  1.490418036706407E+01,  2.035539765630296E+00,  3.599804578502666E+02,  1.079194262908968E+08, -2.176173323163795E-01,
2458438.845138889, A.D. 2018-Nov-16 08:17:00.0000,  4.365492583148830E+07,  9.866842978954211E+07, -1.165375954404399E+06, -3.214058735533776E+01,  1.400946334804308E+01,  2.046979808103989E+00,  3.599181270166611E+02,  1.079007399770810E+08, -2.149077706476313E-01,
2458439.845138889, A.D. 2018-Nov-17 08:17:00.0000,  4.086112937639403E+07,  9.983977865797484E+07, -9.880805688075051E+05, -3.252640870012675E+01,  1.310323387851038E+01,  2.056811087577986E+00,  3.598566015842711E+02,  1.078822951164753E+08, -2.120284793333457E-01,
2458440.845138889, A.D. 2018-Nov-18 08:17:00.0000,  3.803509602000016E+07,  1.009323574773507E+08, -8.100056049599275E+05, -3.288675807677243E+01,  1.218620174948345E+01,  2.065024129352296E+00,  3.597959301670202E+02,  1.078641062831673E+08, -2.089815774911329E-01,
2458441.845138889, A.D. 2018-Nov-19 08:17:00.0000,  3.517904020748448E+07,  1.019452639305046E+08, -6.312912413336486E+05, -3.322132248068325E+01,  1.125908696340851E+01,  2.071610753645916E+00,  3.597361607482853E+02,  1.078461878622116E+08, -2.057693216301917E-01,
2458442.845138889, A.D. 2018-Nov-20 08:17:00.0000,  3.229520255073905E+07,  1.028776583291713E+08, -4.520783067561015E+05, -3.352980926154432E+01,  1.032261916491779E+01,  2.076564087630482E+00,  3.596773406414327E+02,  1.078285540377984E+08, -2.023941046970580E-01,
2458443.845138889, A.D. 2018-Nov-21 08:17:00.0000,  2.938584805546258E+07,  1.037287644220057E+08, -2.725081670091078E+05, -3.381194645154499E+01,  9.377537058472345E+00,  2.079878576362187E+00,  3.596195164506619E+02,  1.078112187815154E+08, -1.988584548842361E-01,
2458444.845138889, A.D. 2018-Nov-22 08:17:00.0000,  2.645326432061430E+07,  1.044978701517369E+08, -9.272261053203046E+04, -3.406748307683675E+01,  8.424587813355622E+00,  2.081549992583793E+00,  3.595627340322304E+02,  1.077941958407226E+08, -1.951650341918885E-01,
2458445.845138889, A.D. 2018-Nov-23 08:17:00.0000,  2.349975971170233E+07,  1.051843283603850E+08,  8.713626667219400E+04, -3.429618945166869E+01,  7.464526456505252E+00,  2.081575445367951E+00,  3.595070384561268E+02,  1.077774987270628E+08, -1.913166367361696E-01,
2458446.845138889, A.D. 2018-Nov-24 08:17:00.0000,  2.052766150942664E+07,  1.057875574415115E+08,  2.669261768266931E+05, -3.449785745465359E+01,  6.498115253691434E+00,  2.079953387572025E+00,  3.594524739682705E+02,  1.077611407051288E+08, -1.873161868028704E-01,
2458447.845138889, A.D. 2018-Nov-25 08:17:00.0000,  1.753931403524440E+07,  1.063070419385185E+08,  4.465047567618564E+05, -3.467230078662053E+01,  5.526123079569581E+00,  2.076683622073424E+00,  3.593990839533062E+02,  1.077451347813100E+08, -1.831667366538825E-01,
2458448.845138889, A.D. 2018-Nov-26 08:17:00.0000,  1.453707675547363E+07,  1.067423330880604E+08,  6.257296847813278E+05, -3.481935520939738E+01,  4.549324777170938E+00,  2.071767306737764E+00,  3.593469108980681E+02,  1.077294936928388E+08, -1.788714640739039E-01,
2458449.845138889, A.D. 2018-Nov-27 08:17:00.0000,  1.152332236559608E+07,  1.070930493076746E+08,  8.044587979032397E+05, -3.493887876562802E+01,  3.568500507229463E+00,  2.065206958183779E+00,  3.592959963557593E+02,  1.077142298970521E+08, -1.744336699485324E-01,
2458450.845138889, A.D. 2018-Nov-28 08:17:00.0000,  8.500434856458753E+06,  1.073588766267926E+08,  9.825502093663961E+05, -3.503075197704797E+01,  2.584435088423706E+00,  2.057006454034171E+00,  3.592463809109030E+02,  1.076993555608839E+08, -1.698567751708115E-01,
2458451.845138889, A.D. 2018-Nov-29 08:17:00.0000,  5.470807564214608E+06,  1.075395690603380E+08,  1.159862426277548E+06, -3.509487802364316E+01,  1.597917328085532E+00,  2.047171034076972E+00,  3.591981041450900E+02,  1.076848825505965E+08, -1.651443184666686E-01,
2458452.845138889, A.D. 2018-Nov-30 08:17:00.0000,  2.436841205680564E+06,  1.076349489241524E+08,  1.336254467301540E+06, -3.513118290108076E+01,  6.097393451480325E-01,  2.035707299974433E+00,  3.591512046033950E+02,  1.076708224217127E+08, -1.602999537264579E-01,
2458453.845138889, A.D. 2018-Dec-01 08:17:00.0000, -5.990580989450057E+05,  1.076449070915855E+08,  1.511585980264984E+06, -3.513961555622494E+01, -3.793041147334958E-01,  2.022623213615347E+00,  3.591057197615194E+02,  1.076571864091651E+08, -1.553274478171735E-01,
2458454.845138889, A.D. 2018-Dec-02 08:17:00.0000, -3.634480814146739E+06,  1.075694031906007E+08,  1.685717359563120E+06, -3.512014800113107E+01, -1.368416371061028E+00,  2.007928094199015E+00,  3.590616859934833E+02,  1.076439854176105E+08, -1.502306788743831E-01,
2458455.845138889, A.D. 2018-Dec-03 08:17:00.0000, -6.667015986061163E+06,  1.074084657408410E+08,  1.858509863258615E+06, -3.507277540510805E+01, -2.356799506263903E+00,  1.991632614012958E+00,  3.590191385397915E+02,  1.076312300118866E+08, -1.450136346702995E-01,
2458456.845138889, A.D. 2018-Dec-04 08:17:00.0000, -9.694253246439341E+06,  1.071621922301898E+08,  2.029825729757972E+06, -3.499751616449444E+01, -3.343655068318421E+00,  1.973748792874455E+00,  3.589781114760955E+02,  1.076189304076166E+08, -1.396804107495966E-01,
2458457.845138889, A.D. 2018-Dec-05 08:17:00.0000, -1.271378482166424E+07,  1.068307491304518E+08,  2.199528293949090E+06, -3.489441194984183E+01, -4.328184777241447E+00,  1.954289991213516E+00,  3.589386376824545E+02,  1.076070964619945E+08, -1.342352081190928E-01,
2458458.845138889, A.D. 2018-Dec-06 08:17:00.0000, -1.572320754485904E+07,  1.064143718518583E+08,  2.367482102681980E+06, -3.476352773024055E+01, -5.309591234544807E+00,  1.933270901782034E+00,  3.589007488133417E+02,  1.075957376647923E+08, -1.286823303699451E-01,
2458459.845138889, A.D. 2018-Dec-07 08:17:00.0000, -1.872012486910131E+07,  1.059133646361791E+08,  2.533553029473476E+06, -3.460495177455570E+01, -6.287078634796300E+00,  1.910707539980576E+00,  3.588644752685659E+02,  1.075848631296436E+08, -1.230261802006025E-01,
2458460.845138889, A.D. 2018-Dec-08 08:17:00.0000, -2.170214887973901E+07,  1.053281003882930E+08,  2.697608388316378E+06, -3.441879562936848E+01, -7.259853478489037E+00,  1.886617232800604E+00,  3.588298461652769E+02,  1.075744815856502E+08, -1.172712553946795E-01,
2458461.845138889, A.D. 2018-Dec-09 08:17:00.0000, -2.466690230378754E+07,  1.046590204461369E+08,  2.859517046473384E+06, -3.420519407343619E+01, -8.227125285473363E+00,  1.861018606385799E+00,  3.587968893111931E+02,  1.075646013693565E+08, -1.114221443895307E-01,
2458462.845138889, A.D. 2018-Dec-10 08:17:00.0000, -2.761202051437147E+07,  1.039066342890158E+08,  3.019149536137149E+06, -3.396430504849630E+01, -9.188107308254960E+00,  1.833931572221671E+00,  3.587656311791403E+02,  1.075552304171159E+08, -1.054835216479172E-01,
2458463.845138889, A.D. 2018-Dec-11 08:17:00.0000, -3.053515352815953E+07,  1.030715191843127E+08,  3.176378164838225E+06, -3.369630956624391E+01, -1.014201724450888E+01,  1.805377311967753E+00,  3.587360968829198E+02,  1.075463762578566E+08, -9.946014311726790E-02,
2458464.845138889, A.D. 2018-Dec-12 08:17:00.0000, -3.343396799373062E+07,  1.021543197726954E+08,  3.331077124484867E+06, -3.340141159158111E+01, -1.108807794805102E+01,  1.775378260967746E+00,  3.587083101544403E+02,  1.075380460062260E+08, -9.335684189791162E-02,
2458465.845138889, A.D. 2018-Dec-13 08:17:00.0000, -3.630614916889028E+07,  1.011557475920292E+08,  3.483122598924674E+06, -3.307983790338816E+01, -1.202551813657445E+01,  1.743958090502209E+00,  3.586822933222490E+02,  1.075302463561540E+08, -8.717852292385070E-02,
2458466.845138889, A.D. 2018-Dec-14 08:17:00.0000, -3.914940288484851E+07,  1.000765805402514E+08,  3.632392869909622E+06, -3.273183792973916E+01, -1.295357309673154E+01,  1.711141688600272E+00,  3.586580672914054E+02,  1.075229835748198E+08, -8.093015900205844E-02,
2458467.845138889, A.D. 2018-Dec-15 08:17:00.0000, -4.196145749520908E+07,  9.891766227753033E+07,  3.778768421352506E+06, -3.235768356108979E+01, -1.387148538432074E+01,  1.676955139668731E+00,  3.586356515246239E+02,  1.075162634969984E+08, -7.461678591780072E-02,
2458468.845138889, A.D. 2018-Dec-16 08:17:00.0000, -4.474006580777837E+07,  9.767990156814110E+07,  3.922132041765891E+06, -3.195766893941765E+01, -1.477850551939104E+01,  1.641425702797179E+00,  3.586150640247781E+02,  1.075100915198156E+08, -6.824349787792171E-02,
2458469.845138889, A.D. 2018-Dec-17 08:17:00.0000, -4.748300699715275E+07,  9.636427156254710E+07,  4.062368924772412E+06, -3.153211022416177E+01, -1.567389267511778E+01,  1.604581788812355E+00,  3.585963213187352E+02,  1.075044725979014E+08, -6.181544285261197E-02,
2458470.845138889, A.D. 2018-Dec-18 08:17:00.0000, -5.018808849608222E+07,  9.497180902026151E+07,  4.199366767578930E+06, -3.108134533502577E+01, -1.655691535961814E+01,  1.566452936093651E+00,  3.585794384425343E+02,  1.074994112389470E+08, -5.533781790387901E-02,
2458471.845138889, A.D. 2018-Dec-19 08:17:00.0000, -5.285314786362051E+07,  9.350361347413734E+07,  4.333015867308542E+06, -3.060573367186751E+01, -1.742685208980281E+01,  1.527069785174618E+00,  3.585644289279142E+02,  1.074949114996657E+08, -4.881586448349223E-02,
2458472.845138889, A.D. 2018-Dec-20 08:17:00.0000, -5.547605462809320E+07,  9.196084633681270E+07,  4.463209215086635E+06, -3.010565581193736E+01, -1.828299205637646E+01,  1.486464052157580E+00,  3.585513047902028E+02,  1.074909769821621E+08, -4.225486369207717E-02,
2458473.845138889, A.D. 2018-Dec-21 08:17:00.0000, -5.805471210293931E+07,  9.034472995011406E+07,  4.589842587779749E+06, -2.958151318476547E+01, -1.912463577911572E+01,  1.444668500970551E+00,  3.585400765175785E+02,  1.074876108307129E+08, -3.566013149826593E-02,
2458474.845138889, A.D. 2018-Dec-22 08:17:00.0000, -6.058705917350968E+07,  8.865654657829390E+07,  4.712814637288567E+06, -2.903372772503718E+01, -1.995109575156956E+01,  1.401716914497672E+00,  3.585307530617144E+02,  1.074848157289624E+08, -2.903701392132070E-02,
2458475.845138889, A.D. 2018-Dec-23 08:17:00.0000, -6.307107205293631E+07,  8.689763734605408E+07,  4.832026977299027E+06, -2.846274150383374E+01, -2.076169707434310E+01,  1.357644064616554E+00,  3.585233418298158E+02,  1.074825938975347E+08, -2.239088218318998E-02,
2458476.845138889, A.D. 2018-Dec-24 08:17:00.0000, -6.550476600522105E+07,  8.506940112237573E+07,  4.947384267398834E+06, -2.786901633865305E+01, -2.155577807614217E+01,  1.312485681177873E+00,  3.585178486780582E+02,  1.074809470920671E+08, -1.572712783602988E-02,
2458477.845138889, A.D. 2018-Dec-25 08:17:00.0000, -6.788619703372954E+07,  8.317329335124911E+07,  5.058794294469353E+06, -2.725303338266308E+01, -2.233269092177220E+01,  1.266278419964509E+00,  3.585142779064328E+02,  1.074798766016646E+08, -9.051157869689685E-03,
2458478.845138889, A.D. 2018-Dec-26 08:17:00.0000, -7.021346353331703E+07,  8.121082483046436E+07,  5.166168051266465E+06, -2.661529269367719E+01, -2.309180220630137E+01,  1.219059829669634E+00,  3.585126322550048E+02,  1.074793832477780E+08, -2.368389799928628E-03,
2458479.845138889, A.D. 2018-Dec-27 08:17:00.0000, -7.248470790435646E+07,  7.918356043969212E+07,  5.269419812107570E+06, -2.595631278337837E+01, -2.383249353461434E+01,  1.170868317934922E+00,  3.585129129015903E+02,  1.074794673835076E+08,  4.315753266882258E-03,
2458480.845138889, A.D. 2018-Dec-28 08:17:00.0000, -7.469811812698638E+07,  7.709311781914899E+07,  5.368467205585077E+06, -2.527663014735382E+01, -2.455416208561460E+01,  1.121743116491555E+00,  3.585151194608595E+02,  1.074801288933347E+08,  1.099584759115686E-02,
2458481.845138889, A.D. 2018-Dec-29 08:17:00.0000, -7.685192929394306E+07,  7.494116600020042E+07,  5.463231284230717E+06, -2.457679877644306E+01, -2.525622116046218E+01,  1.071724245440313E+00,  3.585192499848544E+02,  1.074813671932760E+08,  1.766647364134580E-02,
2458482.845138889, A.D. 2018-Dec-30 08:17:00.0000, -7.894442510039513E+07,  7.272942398932035E+07,  5.553636591058664E+06, -2.385738965023413E+01, -2.593810071391445E+01,  1.020852476734881E+00,  3.585253009649234E+02,  1.074831812314641E+08,  2.432222113998298E-02,
2458483.845138889, A.D. 2018-Dec-31 08:17:00.0000, -8.097393928925897E+07,  7.045965930688576E+07,  5.639611222920138E+06, -2.311899021306873E+01, -2.659924786838983E+01,  9.691692968909980E-01,  3.585332673350923E+02,  1.074855694891584E+08,  3.095769390547348E-02,
2458484.845138889, A.D. 2019-Jan-01 08:17:00.0000, -8.293885705051558E+07,  6.813368648233230E+07,  5.721086890604801E+06, -2.236220383343017E+01, -2.723912740994168E+01,  9.167168689852048E-01,  3.585431424768291E+02,  1.074885299821728E+08,  3.756751475066904E-02,
2458485.845138889, A.D. 2019-Jan-02 08:17:00.0000, -8.483761637312531E+07,  6.575336550725916E+07,  5.797998975629825E+06, -2.158764924737416E+01, -2.785722226559318E+01,  8.635379939881815E-01,  3.585549182252250E+02,  1.074920602627292E+08,  4.414633036870355E-02,
2458486.845138889, A.D. 2019-Jan-03 08:17:00.0000, -8.666870934819007E+07,  6.332060024811765E+07,  5.870286583661180E+06, -2.079595998669450E+01, -2.845303396146941E+01,  8.096760714805651E-01,  3.585685848765737E+02,  1.074961574217296E+08,  5.068881617082676E-02,
2458487.845138889, A.D. 2019-Jan-04 08:17:00.0000, -8.843068342207691E+07,  6.083733682016645E+07,  5.937892594515845E+06, -1.998778379258518E+01, -2.902608306118484E+01,  7.551750598024398E-01,  3.585841311973403E+02,  1.075008180914451E+08,  5.718968108246813E-02,
2458488.845138889, A.D. 2019-Jan-05 08:17:00.0000, -9.012214259828338E+07,  5.830556192442150E+07,  6.000763708698384E+06, -1.916378201557507E+01, -2.957590958398151E+01,  7.000794356884761E-01,  3.586015444345066E+02,  1.075060384486170E+08,  6.364367229757843E-02,
2458489.845138889, A.D. 2019-Jan-06 08:17:00.0000, -9.174174858689269E+07,  5.572730114937036E+07,  6.058850490429636E+06, -1.832462900252568E+01, -3.010207340214964E+01,  6.444341534405886E-01,  3.586208103272794E+02,  1.075118142179669E+08,  7.004557998718013E-02,
2458490.845138889, A.D. 2019-Jan-07 08:17:00.0000, -9.328822190053546E+07,  5.310461723926017E+07,  6.112107407129873E+06, -1.747101147149723E+01, -3.060415461729938E+01,  5.882846036906226E-01,  3.586419131201486E+02,  1.075181406761118E+08,  7.639024195437159E-02,
2458491.845138889, A.D. 2019-Jan-08 08:17:00.0000, -9.476034289584522E+07,  5.043960833080372E+07,  6.160492865323141E+06, -1.660362787530259E+01, -3.108175391508930E+01,  5.316765718057948E-01,  3.586648355772783E+02,  1.075250126558781E+08,  8.267254822723197E-02,
2458492.845138889, A.D. 2019-Jan-09 08:17:00.0000, -9.615695275946641E+07,  4.773440616018067E+07,  6.203969242934415E+06, -1.572318775458315E+01, -3.153449289805360E+01,  4.746561959898621E-01,  3.586895589982115E+02,  1.075324245510098E+08,  8.888744558162823E-02,
2458493.845138889, A.D. 2019-Jan-10 08:17:00.0000, -9.747695443774585E+07,  4.499117424224016E+07,  6.242502917955408E+06, -1.483041108125544E+01, -3.196201439620742E+01,  4.172699251335032E-01,  3.587160632348675E+02,  1.075403703212644E+08,  9.502994198841634E-02,
2458494.845138889, A.D. 2019-Jan-11 08:17:00.0000, -9.871931350931311E+07,  4.221210602383775E+07,  6.276064293459738E+06, -1.392602759319159E+01, -3.236398275514559E+01,  3.595644764675114E-01,  3.587443267098099E+02,  1.075488434978890E+08,  1.010951109849067E-01,
2458495.845138889, A.D. 2019-Jan-12 08:17:00.0000, -9.988305899983007E+07,  3.939942301326167E+07,  6.304627818952870E+06, -1.301077612101125E+01, -3.274008410138774E+01,  3.015867930729357E-01,  3.587743264357640E+02,  1.075578371894721E+08,  1.070780959769206E-01,
2458496.845138889, A.D. 2019-Jan-13 08:17:00.0000, -1.009672841382664E+08,  3.655537288772400E+07,  6.328172008046482E+06, -1.208540390786251E+01, -3.309002658476851E+01,  2.433840013015445E-01,  3.588060380363661E+02,  1.075673440881637E+08,  1.129741144695299E-01,
2458497.845138889, A.D. 2019-Jan-14 08:17:00.0000, -1.019711470541275E+08,  3.368222758090612E+07,  6.346679452451937E+06, -1.115066592293010E+01, -3.341354059771088E+01,  1.850033681516070E-01,  3.588394357681009E+02,  1.075773564762521E+08,  1.187784620893859E-01,
2458498.845138889, A.D. 2019-Jan-15 08:17:00.0000, -1.028938714151420E+08,  3.078228135256375E+07,  6.360136832291462E+06, -1.020732416988605E+01, -3.371037897125336E+01,  1.264922586703108E-01,  3.588744925434105E+02,  1.075878662330917E+08,  1.244865167100548E-01,
2458499.845138889, A.D. 2019-Jan-16 08:17:00.0000, -1.037347470049990E+08,  2.785784884220227E+07,  6.368534922731256E+06, -9.256146990757033E+00, -3.398031714771564E+01,  6.789809341259456E-02,  3.589111799549585E+02,  1.075988648423773E+08,  1.300937423057220E-01,
2458500.845138889, A.D. 2019-Jan-17 08:17:00.0000, -1.044931302407815E+08,  2.491126310884509E+07,  6.371868596943757E+06, -8.297908366353186E+00, -3.422315332997867E+01,  9.268306022171657E-03,  3.589494683009949E+02,  1.076103433997483E+08,  1.355956927658248E-01,
2458501.845138889, A.D. 2019-Jan-18 08:17:00.0000, -1.051684446298383E+08,  2.194487365891432E+07,  6.370136825411942E+06, -7.333387214064769E+00, -3.443870860736956E+01, -4.934969901834485E-02,  3.589893266118071E+02,  1.076222926207185E+08,  1.409880156063874E-01,
2458502.845138889, A.D. 2019-Jan-19 08:17:00.0000, -1.057601811659017E+08,  1.896104446424596E+07,  6.363342671592276E+06, -6.363366683873472E+00, -3.462682705815302E+01, -1.079085884194733E-01,  3.590307226772238E+02,  1.076347028489213E+08,  1.462664555585224E-01,
2458503.845138889, A.D. 2019-Jan-20 08:17:00.0000, -1.062678986643353E+08,  1.596215197225812E+07,  6.351493283957295E+06, -5.388633453451447E+00, -3.478737582869623E+01, -1.663611418495048E-01,  3.590736230751338E+02,  1.076475640646599E+08,  1.514268580379377E-01,
2458504.845138889, A.D. 2019-Jan-21 08:17:00.0000, -1.066912240364696E+08,  1.295058311028367E+07,  6.334599884443002E+06, -4.409977023206384E+00, -3.492024518940649E+01, -2.246602933836570E-01,  3.591179932009904E+02,  1.076608658937522E+08,  1.564651724965744E-01,
2458505.845138889, A.D. 2019-Jan-22 08:17:00.0000, -1.070298525030579E+08,  9.928733286068631E+06,  6.312677753330395E+06, -3.428189012116325E+00, -3.502534856757396E+01, -2.827591725908309E-01,  3.591637972982625E+02,  1.076745976166599E+08,  1.613774556547166E-01,
2458506.845138889, A.D. 2019-Jan-23 08:17:00.0000, -1.072835477469561E+08,  6.899004386424819E+06,  6.285746210594370E+06, -2.444062455183161E+00, -3.510262255728507E+01, -3.406111452124652E-01,  3.592109984898002E+02,  1.076887481778915E+08,  1.661598746100846E-01,
2458507.845138889, A.D. 2019-Jan-24 08:17:00.0000, -1.074521420052018E+08,  3.863802776009514E+06,  6.253828593757239E+06, -1.458391103319090E+00, -3.515202690660415E+01, -3.981698533891844E-01,  3.592595588100787E+02,  1.077033061956690E+08,  1.708087098194373E-01,
2458508.845138889, A.D. 2019-Jan-25 08:17:00.0000, -1.075355361007374E+08,  8.255372981864477E+05,  6.216952232287697E+06, -4.719687264655436E-01, -3.517354448225458E+01, -4.553892553923351E-01,  3.593094392382819E+02,  1.077182599718462E+08,  1.753203579485777E-01,
2458509.845138889, A.D. 2019-Jan-26 08:17:00.0000, -1.075336994140912E+08, -2.213382720099018E+06,  6.175148418589911E+06,  5.144115792705604E-01, -3.516718121206318E+01, -5.122236648186789E-01,  3.593605997321887E+02,  1.077335975020670E+08,  1.796913345887504E-01,
2458510.845138889, A.D. 2019-Jan-27 08:17:00.0000, -1.074466697953958E+08, -5.250549457521825E+06,  6.128452375630840E+06,  1.499958079693204E+00, -3.513296600546425E+01, -5.686277892079534E-01,  3.594129992628224E+02,  1.077493064861537E+08,  1.839182768412220E-01,
2458511.845138889, A.D. 2019-Jan-28 08:17:00.0000, -1.072745534171908E+08, -8.283558579774630E+06,  6.076903221257301E+06,  2.483881085050926E+00, -3.507095065239287E+01, -6.245567680442310E-01,  3.594665958498275E+02,  1.077653743387124E+08,  1.879979457777694E-01,
2458512.845138889, A.D. 2019-Jan-29 08:17:00.0000, -1.070175245685208E+08, -1.131001121130892E+07,  6.020543929257765E+06,  3.465393626302133E+00, -3.498120970092395E+01, -6.799662101041051E-01,  3.595213465975383E+02,  1.077817881999459E+08,  1.919272287772447E-01,
2458513.845138889, A.D. 2019-Jan-30 08:17:00.0000, -1.066758253908965E+08, -1.432751589559588E+07,  5.959421287226486E+06,  4.443712124489747E+00, -3.486384031394130E+01, -7.348122301198590E-01,  3.595772077316896E+02,  1.077985349466598E+08,  1.957031416445577E-01,
2458514.845138889, A.D. 2019-Jan-31 08:17:00.0000, -1.062497655567522E+08, -1.733369054212038E+07,  5.893585851291236E+06,  5.418057052351941E+00, -3.471896210547244E+01, -7.890514847155465E-01,  3.596341346367356E+02,  1.078156012034499E+08,  1.993228307241897E-01,
2458515.845138889, A.D. 2019-Feb-01 08:17:00.0000, -1.057397218910904E+08, -2.032616435836077E+07,  5.823091897768242E+06,  6.387653587725740E+00, -3.454671695682077E+01, -8.426412075927736E-01,  3.596920818937452E+02,  1.078329733540632E+08,  2.027835747689633E-01,
2458516.845138889, A.D. 2019-Feb-02 08:17:00.0000, -1.051461379370550E+08, -2.330257976503254E+07,  5.747997371810902E+06,  7.351732257975264E+00, -3.434726881314511E+01, -8.955392439304202E-01,  3.597510033188194E+02,  1.078506375529150E+08,  2.060827867113342E-01,
2458517.845138889, A.D. 2019-Feb-03 08:17:00.0000, -1.044695234662346E+08, -2.626059429292753E+07,  5.668363833121201E+06,  8.309529574880976E+00, -3.412080346090883E+01, -9.477040839716615E-01,  3.598108520020017E+02,  1.078685797367543E+08,  2.092180152944937E-01,
2458518.845138889, A.D. 2019-Feb-04 08:17:00.0000, -1.037104539345437E+08, -2.919788245971456E+07,  5.584256398795374E+06,  9.260288659406118E+00, -3.386752828666161E+01, -9.990948957709271E-01,  3.598715803466346E+02,  1.078867856364620E+08,  2.121869465600089E-01,
2458519.845138889, A.D. 2019-Feb-05 08:17:00.0000, -1.028695698845823E+08, -3.211213762511092E+07,  5.495743683377388E+06,  1.020325985578348E+01, -3.358767201767088E+01, -1.049671557075724E+00,  3.599331401091277E+02,  1.079052407889738E+08,  2.149874051938859E-01,
2458520.845138889, A.D. 2019-Feb-06 08:17:00.0000, -1.019475762954181E+08, -3.500107382287934E+07,  5.402897736196078E+06,  1.113770133439428E+01, -3.328148444493012E+01, -1.099394686319954E+00,  3.599954824390917E+02,  1.079239305493111E+08,  2.176173557321849E-01,
2458521.845138889, A.D. 2019-Feb-07 08:17:00.0000, -1.009452418807828E+08, -3.786242756815082E+07,  5.305793976063615E+06,  1.206287968293909E+01, -3.294923612908078E+01, -1.148225672707206E+00,  3.600585579197992E+02,  1.079428401027120E+08,  2.200749036261858E-01,
2458522.845138889, A.D. 2019-Feb-08 08:17:00.0000, -9.986339833671424E+07, -4.069395963862063E+07,  5.204511123414828E+06,  1.297807048542849E+01, -3.259121808979493E+01, -1.196126705363914E+00,  3.601223166089341E+02,  1.079619544768466E+08,  2.223582961659566E-01,
2458523.845138889, A.D. 2019-Feb-09 08:17:00.0000, -9.870293953971548E+07, -4.349345682821248E+07,  5.099131129968520E+06,  1.388255888854862E+01, -3.220774147917522E+01, -1.243060801544177E+00,  3.601867080795845E+02,  1.079812585541071E+08,  2.244659232605491E-01,
2458524.845138889, A.D. 2019-Feb-10 08:17:00.0000, -9.746482069654080E+07, -4.625873367185435E+07,  4.989739105993489E+06,  1.477564015498359E+01, -3.179913723973909E+01, -1.288991833869483E+00,  3.602516814614405E+02,  1.080007370839583E+08,  2.263963180730818E-01,
2458525.845138889, A.D. 2019-Feb-11 08:17:00.0000, -9.615005744675234E+07, -4.898763414005899E+07,  4.876423245263275E+06,  1.565662020330316E+01, -3.136575574756406E+01, -1.333884556588135E+00,  3.603171854821543E+02,  1.080203746953370E+08,  2.281481575101280E-01,
2458526.845138889, A.D. 2019-Feb-12 08:17:00.0000, -9.475972491922390E+07, -5.167803330205215E+07,  4.759274747784903E+06,  1.652481613405056E+01, -3.090796644118064E+01, -1.377704630840785E+00,  3.603831685088200E+02,  1.080401559090873E+08,  2.297202625667890E-01,
2458527.845138889, A.D. 2019-Feb-13 08:17:00.0000, -9.329495674379934E+07, -5.432783895624287E+07,  4.638387740388121E+06,  1.737955674169054E+01, -3.042615743681007E+01, -1.420418648919922E+00,  3.604495785895325E+02,  1.080600651504201E+08,  2.311115985331999E-01,
2458528.845138889, A.D. 2019-Feb-14 08:17:00.0000, -9.175694401934083E+07, -5.693499322688235E+07,  4.513859195262413E+06,  1.822018301210433E+01, -2.992073513054515E+01, -1.461994157512768E+00,  3.605163634949874E+02,  1.080800867613838E+08,  2.323212750675657E-01,
2458529.845138889, A.D. 2019-Feb-15 08:17:00.0000, -9.014693423942840E+07, -5.949747412580357E+07,  4.385788846530229E+06,  1.904604860533938E+01, -2.939212378794839E+01, -1.502399679914875E+00,  3.605834707600750E+02,  1.081002050133340E+08,  2.333485460742308E-01,
2458530.845138889, A.D. 2019-Feb-16 08:17:00.0000, -8.846623017699741E+07, -6.201329707819273E+07,  4.254279104945377E+06,  1.985652032333729E+01, -2.884076512199712E+01, -1.541604737215710E+00,  3.606508477254325E+02,  1.081204041193911E+08,  2.341928095701657E-01,
2458531.845138889, A.D. 2019-Feb-17 08:17:00.0000, -8.671618872922009E+07, -6.448051641139741E+07,  4.119434970806088E+06,  2.065097856242957E+01, -2.826711785955014E+01, -1.579579868437833E+00,  3.607184415789275E+02,  1.081406682468760E+08,  2.348536073006609E-01,
2458532.845138889, A.D. 2019-Feb-18 08:17:00.0000, -8.489821972396064E+07, -6.689722680581624E+07,  3.981363945173066E+06,  2.142881775031920E+01, -2.767165729729211E+01, -1.616296649633949E+00,  3.607861993970233E+02,  1.081609815297117E+08,  2.353306243426975E-01,
2458533.845138889, A.D. 2019-Feb-19 08:17:00.0000, -8.301378468914938E+07, -6.926156470698601E+07,  3.840175939482696E+06,  2.218944676742019E+01, -2.705487484766233E+01, -1.651727711940067E+00,  3.608540681860180E+02,  1.081813280807859E+08,  2.356236886074004E-01,
2458534.845138889, A.D. 2019-Feb-20 08:17:00.0000, -8.106439558643590E+07, -7.157170969802608E+07,  3.695983183645558E+06,  2.293228935237642E+01, -2.641727757537923E+01, -1.685846758583603E+00,  3.609219949231279E+02,  1.082016920042680E+08,  2.357327702659942E-01,
2458535.845138889, A.D. 2019-Feb-21 08:17:00.0000, -7.905161351049332E+07, -7.382588583165622E+07,  3.548900132720452E+06,  2.365678449162931E+01, -2.575938772522498E+01, -1.718628580851785E+00,  3.609899265973996E+02,  1.082220574078740E+08,  2.356579811425415E-01,
2458536.845138889, A.D. 2019-Feb-22 08:17:00.0000, -7.697704735535605E+07, -7.602236292106058E+07,  3.399043372253343E+06,  2.436238679295884E+01, -2.508174224173386E+01, -1.750049073029052E+00,  3.610578102504447E+02,  1.082424084150784E+08,  2.353995740928735E-01,
2458537.845138889, A.D. 2019-Feb-23 08:17:00.0000, -7.484235244917734E+07, -7.815945778892556E+07,  3.246531522369877E+06,  2.504856684296819E+01, -2.438489228140419E+01, -1.780085246314126E+00,  3.611255930169949E+02,  1.082627291772725E+08,  2.349579423717424E-01,
2458538.845138889, A.D. 2019-Feb-24 08:17:00.0000, -7.264922915879324E+07, -8.023553547403120E+07,  3.091485140709113E+06,  2.571481154851939E+01, -2.366940271802873E+01, -1.808715241728727E+00,  3.611932221652707E+02,  1.082830038858666E+08,  2.343336189779480E-01,
2458539.845138889, A.D. 2019-Feb-25 08:17:00.0000, -7.039942146547906E+07, -8.224901039482641E+07,  2.934026624285080E+06,  2.636062446215639E+01, -2.293585164171039E+01, -1.835918342030142E+00,  3.612606451371566E+02,  1.083032167843339E+08,  2.335272759580498E-01,
2458540.845138889, A.D. 2019-Feb-26 08:17:00.0000, -6.809471551327880E+07, -8.419834746946581E+07,  2.774280110361669E+06,  2.698552609157130E+01, -2.218482985210087E+01, -1.861674982639090E+00,  3.613278095881669E+02,  1.083233521801925E+08,  2.325397236439046E-01,
2458541.845138889, A.D. 2019-Feb-27 08:17:00.0000, -6.573693813128354E+07, -8.608206319183111E+07,  2.612371376425561E+06,  2.758905419318141E+01, -2.141694034636772E+01, -1.885966761592642E+00,  3.613946634271779E+02,  1.083433944569163E+08,  2.313719097937456E-01,
2458542.845138889, A.D. 2019-Feb-28 08:17:00.0000, -6.332795533122905E+07, -8.789872666310233E+07,  2.448427739341091E+06,  2.817076404988653E+01, -2.063279780236173E+01, -1.908776448529300E+00,  3.614611548558954E+02,  1.083633280857675E+08,  2.300249186010265E-01,
2458543.845138889, A.D. 2019-Mar-01 08:17:00.0000, -6.086967078177574E+07, -8.964696057848291E+07,  2.282577953770407E+06,  2.873022873307064E+01, -1.983302805742034E+01, -1.930087992709680E+00,  3.615272324080117E+02,  1.083831376375351E+08,  2.284999695267172E-01,
2458544.845138889, A.D. 2019-Mar-02 08:17:00.0000, -5.836402426083099E+07, -9.132544216871990E+07,  2.114952109942380E+06,  2.926703934888859E+01, -1.901826758321759E+01, -1.949886530072735E+00,  3.615928449879944E+02,  1.084028077941638E+08,  2.267984159128733E-01,
2458545.845138889, A.D. 2019-Mar-03 08:17:00.0000, -5.581299008727366E+07, -9.293290409609923E+07,  1.945681530853271E+06,  2.978080526877574E+01, -1.818916295720116E+01, -1.968158389334787E+00,  3.616579419094599E+02,  1.084223233602582E+08,  2.249217435023572E-01,
2458546.845138889, A.D. 2019-Mar-04 08:17:00.0000, -5.321857553343382E+07, -9.446813530464020E+07,  1.774898668981496E+06,  3.027115434445634E+01, -1.734637033099758E+01, -1.984891097137517E+00,  3.617224729330850E+02,  1.084416692744480E+08,  2.228715686849448E-01,
2458547.845138889, A.D. 2019-Mar-05 08:17:00.0000, -5.058281921967434E+07, -9.592998182424675E+07,  1.602737002598837E+06,  3.073773310721565E+01, -1.649055489628944E+01, -2.000073382243999E+00,  3.617863883039983E+02,  1.084608306205981E+08,  2.206496366783382E-01,
2458548.845138889, A.D. 2019-Mar-06 08:17:00.0000, -4.790778949242501E+07, -9.731734752861913E+07,  1.429330931759402E+06,  3.118020695171836E+01, -1.562239034865634E+01, -2.013695178803611E+00,  3.618496387886289E+02,  1.084797926388552E+08,  2.182578195681881E-01,
2458549.845138889, A.D. 2019-Mar-07 08:17:00.0000, -4.519558278700053E+07, -9.862919484677033E+07,  1.254815674046502E+06,  3.159826030442009E+01, -1.474255834984547E+01, -2.025747628695480E+00,  3.619121757109767E+02,  1.084985407365216E+08,  2.156981142618362E-01,
2458550.845138889, A.D. 2019-Mar-08 08:17:00.0000, -4.244832197652922E+07, -9.986454542803183E+07,  1.079327160156146E+06,  3.199159677669572E+01, -1.385174798894342E+01, -2.036223082966271E+00,  3.619739509882838E+02,  1.085170604987491E+08,  2.129726403867953E-01,
2458551.845138889, A.D. 2019-Mar-09 08:17:00.0000, -3.966815470830542E+07, -1.010224807604736E+08,  9.030019293948933E+05,  3.235993930285914E+01, -1.295065524290464E+01, -2.045115102381438E+00,  3.620349171660946E+02,  1.085353376990499E+08,  2.100836381475196E-01,
2458552.845138889, A.D. 2019-Mar-10 08:17:00.0000, -3.685725172886297E+07, -1.021021427427015E+08,  7.259770251676366E+05,  3.270303026326155E+01, -1.203998243686604E+01, -2.052418457108944E+00,  3.620950274526933E+02,  1.085533583096204E+08,  2.070334661491249E-01,
2458553.845138889, A.D. 2019-Mar-11 08:17:00.0000, -3.401780519905052E+07, -1.031027342090314E+08,  5.483898905294910E+05,  3.302063159266662E+01, -1.112043770465456E+01, -2.058129125554311E+00,  3.621542357529096E+02,  1.085711085114763E+08,  2.038245991929477E-01,
2458554.845138889, A.D. 2019-Mar-12 08:17:00.0000, -3.115202700037181E+07, -1.040235194080733E+08,  3.703782638742998E+05,  3.331252487410971E+01, -1.019273444987147E+01, -2.062244292365730E+00,  3.622124967012858E+02,  1.085885747043954E+08,  2.004596260452386E-01,
2458555.845138889, A.D. 2019-Mar-13 08:17:00.0000, -2.826214703383591E+07, -1.048638244347915E+08,  1.920800748308375E+05,  3.357851141845630E+01, -9.257590807916213E+00, -2.064762345627694E+00,  3.622697656945963E+02,  1.086057435166671E+08,  1.969412471779328E-01,
2458556.845138889, A.D. 2019-Mar-14 08:17:00.0000, -2.535041151254342E+07, -1.056230376161358E+08,  1.363334043565392E+04,  3.381841232988059E+01, -8.315729109292434E+00, -2.065682873261260E+00,  3.623259989237118E+02,  1.086226018146449E+08,  1.932722724781136E-01,
2458557.845138889, A.D. 2019-Mar-15 08:17:00.0000, -2.241908124921558E+07, -1.063006098503706E+08, -1.648239383492246E+05,  3.403206855748888E+01, -7.367875344520240E+00, -2.065006658648789E+00,  3.623811534047988E+02,  1.086391367120997E+08,  1.894556189224252E-01,
2458558.845138889, A.D. 2019-Mar-16 08:17:00.0000, -1.947042993985338E+07, -1.068960549002521E+08, -3.431538797078580E+05,  3.421934093331533E+01, -6.414758630960787E+00, -2.062735675500498E+00,  3.624351870098429E+02,  1.086553355793704E+08,  1.854943082119890E-01,
2458559.845138889, A.D. 2019-Mar-17 08:17:00.0000, -1.650674244469440E+07, -1.074089496402322E+08, -5.212188235661611E+05,  3.438011019691819E+01, -5.457110681843139E+00, -2.058873081979734E+00,  3.624880584964833E+02,  1.086711860523085E+08,  1.813914643638465E-01,
2458560.845138889, A.D. 2019-Mar-18 08:17:00.0000, -1.353031306761522E+07, -1.078389342578922E+08, -6.988814336487129E+05,  3.451427700679907E+01, -4.495665277767721E+00, -2.053423214103266E+00,  3.625397275371496E+02,  1.086866760410124E+08,  1.771503112561057E-01,
2458561.845138889, A.D. 2019-Mar-19 08:17:00.0000, -1.054344383510987E+07, -1.081857124098305E+08, -8.760047989346012E+05,  3.462176193883920E+01, -3.531157740972438E+00, -2.046391578432454E+00,  3.625901547474832E+02,  1.087017937383483E+08,  1.727741701513036E-01,
2458562.845138889, A.D. 2019-Mar-20 08:17:00.0000, -7.548442775951945E+06, -1.084490513322545E+08, -1.052452534451872E+06,  3.470250547208006E+01, -2.564324412552916E+00, -2.037784844074961E+00,  3.626393017140367E+02,  1.087165276282547E+08,  1.682664571270663E-01,
2458563.845138889, A.D. 2019-Mar-21 08:17:00.0000, -4.547622202628860E+06, -1.086287819065420E+08, -1.228088881351516E+06,  3.475646796194670E+01, -1.595902132949858E+00, -2.027610834008301E+00,  3.626871310212291E+02,  1.087308664938223E+08,  1.636306805083014E-01,
2458564.845138889, A.D. 2019-Mar-22 08:17:00.0000, -1.543296995620664E+06, -1.087247986800654E+08, -1.402778806203187E+06,  3.478362960122629E+01, -6.266277258748304E-01, -2.015878515744439E+00,  3.627336062775541E+02,  1.087447994251522E+08,  1.588704382354521E-01,
2458565.845138889, A.D. 2019-Mar-23 08:17:00.0000,  1.462217108427980E+06, -1.087370598425822E+08, -1.576388099456534E+06,  3.478399036900353E+01,  3.427625141041195E-01, -2.002597991350368E+00,  3.627786921410216E+02,  1.087583158269821E+08,  1.539894151838531E-01,
2458566.845138889, A.D. 2019-Mar-24 08:17:00.0000,  4.466605223611387E+06, -1.086655871585197E+08, -1.748783473012894E+06,  3.475756996777040E+01,  1.311533330106445E+00, -1.987780486839881E+00,  3.628223543438214E+02,  1.087714054260812E+08,  1.489913804457768E-01,
2458567.845138889, A.D. 2019-Mar-25 08:17:00.0000,  7.467555015729964E+06, -1.085104658554951E+08, -1.919832656853870E+06,  3.470440774893510E+01,  2.278951007427730E+00, -1.971438340951887E+00,  3.628645597161986E+02,  1.087840582784069E+08,  1.438801845720941E-01,